0 1.0 1.0 1.0 1.0
1 0.8425 0.84243787 0.8365 0.8484
2 0.5939 0.59395269 0.586 0.6021
3 0.3746 0.37463848 0.3669 0.3826
4 0.2296 0.22966838 0.223 0.2364
5 0.1457 0.14569631 0.1401 0.1513
6 0.0982 0.09825447 0.0935 0.103
7 0.0704 0.0704146 0.0663 0.0746
8 0.053 0.05305377 0.0494 0.0567
9 0.0415 0.04154193 0.0384 0.0448
10 0.0335 0.03350342 0.0306 0.0364
11 0.0276 0.02766894 0.0251 0.0303
12 0.0233 0.02329182 0.0209 0.0257
13 0.0199 0.01992265 0.0177 0.0222
14 0.0172 0.01726164 0.0152 0.0193
15 0.0151 0.01513013 0.0132 0.0171
16 0.0134 0.01339362 0.0116 0.0153
17 0.0119 0.01195206 0.0102 0.0137
18 0.0107 0.01074414 0.0091 0.0124
19 0.0097 0.00972155 0.0082 0.0113
20 0.0088 0.00884825 0.0073 0.0104
21 0.0081 0.00809471 0.0067 0.0096
22 0.0074 0.00744152 0.0061 0.0089
23 0.0069 0.00686609 0.0056 0.0082
24 0.0064 0.00636248 0.0051 0.0077
25 0.0059 0.00591804 0.0047 0.0072
26 0.0055 0.00551959 0.0043 0.0068
27 0.0051 0.0051641 0.004 0.0064
28 0.0048 0.00484407 0.0037 0.006
29 0.0045 0.00455672 0.0035 0.0057
30 0.0043 0.00429679 0.0033 0.0054
31 0.004 0.00405972 0.0031 0.0051
32 0.0038 0.00384456 0.0029 0.0049
33 0.0036 0.00364995 0.0027 0.0047
34 0.0034 0.00346721 0.0026 0.0045
35 0.0033 0.00329925 0.0024 0.0043
36 0.0031 0.0031447 0.0023 0.0041
37 0.003 0.00299885 0.0021 0.0039
38 0.0028 0.0028649 0.002 0.0038
39 0.0027 0.00274056 0.0019 0.0036
40 0.0026 0.00262577 0.0018 0.0035
41 0.0025 0.0025189 0.0017 0.0034
42 0.0024 0.00241795 0.0017 0.0033
43 0.0023 0.00232258 0.0016 0.0031
44 0.0022 0.00223423 0.0015 0.003
45 0.0021 0.00215103 0.0014 0.0029
46 0.0021 0.00207349 0.0014 0.0028
47 0.002 0.00199972 0.0013 0.0028
48 0.0019 0.00193075 0.0013 0.0027
49 0.0018 0.00186475 0.0012 0.0026
50 0.0018 0.00180294 0.0011 0.0025
51 0.0017 0.00174581 0.0011 0.0025
52 0.0017 0.00169109 0.0011 0.0024
53 0.0016 0.00163936 0.001 0.0023
54 0.0016 0.00158858 0.001 0.0023
55 0.0015 0.00153888 0.0009 0.0022
56 0.0015 0.00148645 0.0009 0.0021
57 0.0014 0.00143292 0.0008 0.0021
58 0.0014 0.00138302 0.0008 0.002
59 0.0013 0.00134113 0.0008 0.002
60 0.0013 0.00130492 0.0007 0.0019
61 0.0013 0.00127119 0.0007 0.0019
62 0.0012 0.00123907 0.0007 0.0018
63 0.0012 0.00120833 0.0007 0.0018
64 0.0012 0.00117836 0.0006 0.0017
65 0.0011 0.00114987 0.0006 0.0017
66 0.0011 0.00112261 0.0006 0.0017
67 0.0011 0.00109584 0.0006 0.0017
68 0.0011 0.00106987 0.0006 0.0016
69 0.001 0.00104512 0.0005 0.0016
70 0.001 0.00102156 0.0005 0.0016
71 0.001 0.00099857 0.0005 0.0015
72 0.001 0.00097656 0.0005 0.0015
73 0.0009 0.000955 0.0005 0.0015
74 0.0009 0.00093514 0.0005 0.0015
75 0.0009 0.00091501 0.0004 0.0014
76 0.0009 0.00089678 0.0004 0.0014
77 0.0009 0.00087768 0.0004 0.0014
78 0.0008 0.00085977 0.0004 0.0014
79 0.0008 0.00084288 0.0004 0.0013
80 0.0008 0.00082564 0.0004 0.0013
81 0.0008 0.00080967 0.0004 0.0013
82 0.0008 0.00079371 0.0004 0.0013
83 0.0008 0.00077815 0.0004 0.0013
84 0.0008 0.00076416 0.0003 0.0012
85 0.0007 0.00075018 0.0003 0.0012
86 0.0007 0.00073668 0.0003 0.0012
87 0.0007 0.00072319 0.0003 0.0012
88 0.0007 0.00071046 0.0003 0.0012
89 0.0007 0.00069807 0.0003 0.0012
90 0.0007 0.00068587 0.0003 0.0011
91 0.0007 0.00067407 0.0003 0.0011
92 0.0006 0.00066234 0.0003 0.0011
93 0.0006 0.00065038 0.0003 0.0011
94 0.0006 0.00063931 0.0003 0.0011
95 0.0006 0.00062929 0.0003 0.0011
96 0.0006 0.0006189 0.0002 0.001
97 0.0006 0.00060857 0.0002 0.001
98 0.0006 0.00059841 0.0002 0.001
