0 1.0 1.0 1.0 1.0
1 0.8174 0.81735356 0.8107 0.8239
2 0.5336 0.53367477 0.524995 0.5424
3 0.2953 0.29526382 0.2875 0.3031
4 0.1508 0.15080177 0.1447 0.1568
5 0.0773 0.07731568 0.0728 0.0818
6 0.0422 0.04220222 0.0389 0.0456
7 0.0251 0.0250986 0.0225 0.0278
8 0.0161 0.01611898 0.014 0.0183
9 0.011 0.01103377 0.0094 0.0128
10 0.0079 0.00794 0.0065 0.0094
11 0.0059 0.00592726 0.0047 0.0072
12 0.0045 0.00455803 0.0035 0.0057
13 0.0036 0.0035903 0.0026 0.0046
14 0.0029 0.00288862 0.002 0.0038
15 0.0023 0.00236519 0.0016 0.0032
16 0.0019 0.00196388 0.0013 0.0027
17 0.0016 0.00165069 0.001 0.0023
18 0.0014 0.00140077 0.0008 0.002
19 0.0012 0.00120426 0.0007 0.0018
20 0.001 0.00104242 0.0005 0.0016
21 0.0009 0.00090928 0.0004 0.0014
22 0.0008 0.00079819 0.0004 0.0013
23 0.0007 0.00070492 0.0003 0.0012
24 0.0006 0.00062676 0.0002 0.0011
25 0.0005 0.00056099 0.0002 0.001
26 0.0005 0.00050316 0.0002 0.0009
27 0.0004 0.00045403 0.0001 0.0008
28 0.0004 0.00041016 0.0001 0.0008
29 0.0004 0.00037349 0.0001 0.0007
30 0.0003 0.00034153 0.0001 0.0007
31 0.0003 0.00031287 0.0001 0.0006
32 0.0003 0.00028626 0.0 0.0006
33 0.0002 0.00026227 0.0 0.0006
34 0.0002 0.0002419 0.0 0.0005
35 0.0002 0.00022282 0.0 0.0005
36 0.0002 0.00020618 0.0 0.0005
37 0.0002 0.00019204 0.0 0.0004
38 0.0002 0.00017866 0.0 0.0004
39 0.0001 0.0001663 0.0 0.0004
40 0.0001 0.00015532 0.0 0.0004
41 0.0001 0.00014522 0.0 0.0004
42 0.0001 0.00013604 0.0 0.0004
43 0.0001 0.0001281 0.0 0.0003
44 0.0001 0.00012049 0.0 0.0003
45 0.0001 0.00011402 0.0 0.0003
46 0.0001 0.00010714 0.0 0.0003
47 0.0001 0.00010101 0.0 0.0003
48 0.0001 9.559e-05 0.0 0.0003
49 0.0001 9.002e-05 0.0 0.0003
50 0.0001 8.544e-05 0.0 0.0003
51 0.0001 8.102e-05 0.0 0.0002
52 0.0001 7.719e-05 0.0 0.0002
53 0.0001 7.331e-05 0.0 0.0002
54 0.0001 6.956e-05 0.0 0.0002
55 0.0 6.606e-05 0.0 0.0002
56 0.0 6.233e-05 0.0 0.0002
57 0.0 5.889e-05 0.0 0.0002
58 0.0 5.586e-05 0.0 0.0002
59 0.0 5.32e-05 0.0 0.0002
60 0.0 5.104e-05 0.0 0.0002
61 0.0 4.887e-05 0.0 0.0002
62 0.0 4.705e-05 0.0 0.0002
63 0.0 4.533e-05 0.0 0.0002
64 0.0 4.357e-05 0.0 0.0002
65 0.0 4.178e-05 0.0 0.0002
66 0.0 4.021e-05 0.0 0.0002
67 0.0 3.87e-05 0.0 0.0002
68 0.0 3.728e-05 0.0 0.0002
69 0.0 3.573e-05 0.0 0.0001
70 0.0 3.431e-05 0.0 0.0001
71 0.0 3.296e-05 0.0 0.0001
72 0.0 3.198e-05 0.0 0.0001
73 0.0 3.095e-05 0.0 0.0001
74 0.0 2.987e-05 0.0 0.0001
75 0.0 2.884e-05 0.0 0.0001
76 0.0 2.787e-05 0.0 0.0001
77 0.0 2.703e-05 0.0 0.0001
78 0.0 2.614e-05 0.0 0.0001
79 0.0 2.531e-05 0.0 0.0001
80 0.0 2.454e-05 0.0 0.0001
81 0.0 2.374e-05 0.0 0.0001
82 0.0 2.297e-05 0.0 0.0001
83 0.0 2.221e-05 0.0 0.0001
84 0.0 2.144e-05 0.0 0.0001
85 0.0 2.07e-05 0.0 0.0001
86 0.0 2.021e-05 0.0 0.0001
87 0.0 1.968e-05 0.0 0.0001
88 0.0 1.9e-05 0.0 0.0001
89 0.0 1.858e-05 0.0 0.0001
90 0.0 1.817e-05 0.0 0.0001
91 0.0 1.762e-05 0.0 0.0001
92 0.0 1.706e-05 0.0 0.0001
93 0.0 1.661e-05 0.0 0.0001
94 0.0 1.62e-05 0.0 0.0001
95 0.0 1.58e-05 0.0 0.0001
96 0.0 1.548e-05 0.0 0.0001
97 0.0 1.495e-05 0.0 0.0001
98 0.0 1.462e-05 0.0 0.0001
